DP2/Documentation/OutputFiles/TS-ARRIA-RCA-Transcript.txt
# Model Technology ModelSim - Intel FPGA Edition vcom 2020.1 Compiler 2020.02 Feb 28 2020
# -- Loading package STANDARD
# -- Loading package TEXTIO
# -- Loading package std_logic_1164
# -- Loading package VITAL_Timing
# -- Loading package VITAL_Primitives
# -- Loading package arriaii_atom_pack
# -- Loading package arriaii_components
# -- Compiling entity EN_Adder
# -- Compiling architecture structure of EN_Adder
# Model Technology ModelSim - Intel FPGA Edition vcom 2020.1 Compiler 2020.02 Feb 28 2020
# -- Loading package STANDARD
# -- Loading package TEXTIO
# -- Loading package std_logic_1164
# -- Loading package NUMERIC_STD
# -- Compiling entity TB_Adder
# -- Compiling architecture behavior of TB_Adder
# Model Technology ModelSim - Intel FPGA Edition vcom 2020.1 Compiler 2020.02 Feb 28 2020
# -- Loading package STANDARD
# -- Loading package TEXTIO
# -- Loading package std_logic_1164
# -- Compiling configuration CFG_FUNC_RCA
# -- Loading package NUMERIC_STD
# -- Loading entity TB_Adder
# -- Loading architecture behavior of TB_Adder
# -- Loading package VITAL_Timing
# -- Loading package VITAL_Primitives
# -- Loading package arriaii_atom_pack
# -- Loading package arriaii_components
# -- Loading entity EN_Adder
# -- Compiling configuration CFG_FUNC_CSA
# -- Loading entity TB_Adder
# -- Loading architecture behavior of TB_Adder
# -- Loading entity EN_Adder
# -- Compiling configuration CFG_FUNC_LACGT
# -- Loading entity TB_Adder
# -- Loading architecture behavior of TB_Adder
# -- Loading entity EN_Adder
# -- Compiling configuration CFG_FUNC_BKA
# -- Loading entity TB_Adder
# -- Loading architecture behavior of TB_Adder
# -- Loading entity EN_Adder
# -- Compiling configuration CFG_TIMING
# -- Loading entity TB_Adder
# -- Loading architecture behavior of TB_Adder
# -- Loading entity EN_Adder
# Starting functional simulation...
# End time: 19:00:26 on Nov 12,2025, Elapsed time: 0:01:45
# Errors: 0, Warnings: 2
# vsim -t 100ps -gui -sdftyp "/TB_ADDER/DUT=ModelSim/Questa/ARRIA_RCA.sdo" work.CFG_TIMING 
# Start time: 19:00:26 on Nov 12,2025
# Loading std.standard
# Loading std.textio(body)
# Loading ieee.std_logic_1164(body)
# Loading ieee.numeric_std(body)
# Loading ieee.vital_timing(body)
# Loading ieee.vital_primitives(body)
# Loading arriaii.arriaii_atom_pack(body)
# Loading arriaii.arriaii_components
# Loading work.cfg_timing
# SDF 2020.1 Compiler 2020.02 Feb 28 2020
# 
# Loading work.tb_adder(behavior)
# Loading work.en_adder(structure)
# Loading ieee.std_logic_arith(body)
# Loading arriaii.arriaii_io_obuf(arch)
# Loading arriaii.arriaii_io_ibuf(arch)
# Loading arriaii.arriaii_lcell_comb(vital_lcell_comb)
# Loading instances from ModelSim/Questa/ARRIA_RCA.sdo
# Loading timing data from ModelSim/Questa/ARRIA_RCA.sdo
# GetModuleFileName: The specified module could not be found.
# 
# 
# ** Warning: Design size of 42626 statements exceeds ModelSim-Intel FPGA Starter Edition recommended capacity.
# Expect performance to be adversely affected.
# ** Note: (vsim-3587) SDF Backannotation Successfully Completed.
#    Time: 0 ps  Iteration: 0  Instance: /tb_adder File: TB_Adder.vhd
# 
# echo "Running functional simulation..."
# Running functional simulation...
# run -all
# ** Note: Using test vectors from file: TestVectors/Adder00.tvs
#    Time: 0 ps  Iteration: 0  Instance: /tb_adder
# 0 A=0000000000000000 B=0000000000000000 Cin=0  |  S=0000000000000000 Cout=0 Ovfl=0  status=PASS
# 1 A=0000000000000001 B=0000000000000000 Cin=0  |  S=0000000000000001 Cout=0 Ovfl=0  status=PASS
# 2 A=0000000000000001 B=0000000000000001 Cin=0  |  S=0000000000000002 Cout=0 Ovfl=0  status=PASS
# 3 A=0000000000000001 B=0000000000000001 Cin=1  |  S=0000000000000003 Cout=0 Ovfl=0  status=PASS
# 4 A=FFFFFFFFFFFFFFFF B=0000000000000000 Cin=0  |  S=FFFFFFFFFFFFFFFF Cout=0 Ovfl=0  status=PASS
# 5 A=FFFFFFFFFFFFFFFF B=0000000000000001 Cin=0  |  S=0000000000000000 Cout=1 Ovfl=0  status=PASS
# 6 A=FFFFFFFFFFFFFFFF B=FFFFFFFFFFFFFFFF Cin=0  |  S=FFFFFFFFFFFFFFFE Cout=1 Ovfl=0  status=PASS
# 7 A=FFFFFFFFFFFFFFFF B=FFFFFFFFFFFFFFFF Cin=1  |  S=FFFFFFFFFFFFFFFF Cout=1 Ovfl=0  status=PASS
# 8 A=7FFFFFFFFFFFFFFF B=0000000000000001 Cin=0  |  S=8000000000000000 Cout=0 Ovfl=1  status=PASS
# 9 A=8000000000000000 B=FFFFFFFFFFFFFFFF Cin=0  |  S=7FFFFFFFFFFFFFFF Cout=1 Ovfl=1  status=PASS
# 10 A=7FFFFFFFFFFFFFFF B=7FFFFFFFFFFFFFFF Cin=0  |  S=FFFFFFFFFFFFFFFE Cout=0 Ovfl=1  status=PASS
# 11 A=8000000000000000 B=8000000000000000 Cin=0  |  S=0000000000000000 Cout=1 Ovfl=1  status=PASS
# 12 A=AAAAAAAAAAAAAAAA B=5555555555555555 Cin=0  |  S=FFFFFFFFFFFFFFFF Cout=0 Ovfl=0  status=PASS
# 13 A=AAAAAAAAAAAAAAAA B=5555555555555555 Cin=1  |  S=0000000000000000 Cout=1 Ovfl=0  status=PASS
# 14 A=8000000000000000 B=7FFFFFFFFFFFFFFF Cin=0  |  S=FFFFFFFFFFFFFFFF Cout=0 Ovfl=0  status=PASS
# 15 A=00000000000000FF B=0000000000000001 Cin=0  |  S=0000000000000100 Cout=0 Ovfl=0  status=PASS
# 16 A=FFFFFFFFFFFFFF00 B=00000000000000FF Cin=1  |  S=0000000000000000 Cout=1 Ovfl=0  status=PASS
# 17 A=FFFFFFFFFFFFFFFE B=0000000000000001 Cin=1  |  S=0000000000000000 Cout=1 Ovfl=0  status=PASS
# 18 A=0000000000000000 B=FFFFFFFFFFFFFFFF Cin=1  |  S=0000000000000000 Cout=1 Ovfl=0  status=PASS
# 19 A=0000000000000002 B=FFFFFFFFFFFFFFFF Cin=0  |  S=0000000000000001 Cout=1 Ovfl=0  status=PASS
# 20 A=8A5FE329F8357A71 B=6C12CE81FF7B8029 Cin=1  |  S=F672B1ABF7B0FA9B Cout=0 Ovfl=0  status=PASS
# 21 A=EACD5CF5BDCAAC5C B=3B1BD28B80B8388A Cin=1  |  S=25E92F813E82E4E7 Cout=1 Ovfl=0  status=PASS
# 22 A=BDCB8EFCBCB9D9DE B=24670E753C27462A Cin=1  |  S=E2329D71F8E12009 Cout=0 Ovfl=0  status=PASS
# 23 A=A1D1DFDF51E1AA2E B=4CA9169A2ACCFA36 Cin=1  |  S=EE7AF6797CAEA465 Cout=0 Ovfl=0  status=PASS
# 24 A=6CF714CCB88BC8BB B=3D26DE20BCBDC760 Cin=1  |  S=AA1DF2ED7549901C Cout=0 Ovfl=1  status=PASS
# 25 A=F78FDE09CF6A4942 B=FD156AC3711C0B2B Cin=1  |  S=F4A548CD4086546E Cout=1 Ovfl=0  status=PASS
# 26 A=B9AB2B45433255FF B=A6A9DD9616101CBD Cin=0  |  S=605508DB594272BC Cout=1 Ovfl=1  status=PASS
# 27 A=3592FB8DD8A98D9D B=06203D1234E71E1C Cin=1  |  S=3BB338A00D90ABBA Cout=0 Ovfl=0  status=PASS
# 28 A=0794054031DB7AFC B=C37B05F1C3792EDA Cin=0  |  S=CB0F0B31F554A9D6 Cout=0 Ovfl=0  status=PASS
# 29 A=3F6E87BD0C6FCF97 B=9BC376A8BC610D12 Cin=0  |  S=DB31FE65C8D0DCA9 Cout=0 Ovfl=0  status=PASS
# 30 A=E91DDDBE40234AC5 B=FF1FDC57492498FA Cin=0  |  S=E83DBA158947E3BF Cout=1 Ovfl=0  status=PASS
# 31 A=E63C3E7D53DFB2DE B=F10C9E903DDDF74F Cin=0  |  S=D748DD0D91BDAA2D Cout=1 Ovfl=0  status=PASS
# 32 A=2A973F2664D083FF B=D0D37AC498113CA6 Cin=1  |  S=FB6AB9EAFCE1C0A6 Cout=0 Ovfl=0  status=PASS
# 33 A=7BF1DE2DA04CCC9A B=B6FFCA56D8A6E190 Cin=1  |  S=32F1A88478F3AE2B Cout=1 Ovfl=0  status=PASS
# 34 A=E13E7ECA14FD1872 B=72C11CB2B69C255E Cin=0  |  S=53FF9B7CCB993DD0 Cout=1 Ovfl=0  status=PASS
# 35 A=F3E111AF8C2FA729 B=D97AD092A238EB07 Cin=0  |  S=CD5BE2422E689230 Cout=1 Ovfl=0  status=PASS
# 36 A=B73980D16F1AFF52 B=63B8AA89EE6D89D7 Cin=0  |  S=1AF22B5B5D888929 Cout=1 Ovfl=0  status=PASS
# 37 A=C3D5325E530AD0D0 B=49EA855C96D5ABD2 Cin=1  |  S=0DBFB7BAE9E07CA3 Cout=1 Ovfl=0  status=PASS
# 38 A=D405FBB1E2770F35 B=AC9080ED782502C5 Cin=1  |  S=80967C9F5A9C11FB Cout=1 Ovfl=0  status=PASS
# 39 A=A20D6744E490E078 B=F612D307678C752F Cin=0  |  S=98203A4C4C1D55A7 Cout=1 Ovfl=0  status=PASS
# 40 A=465F94A300A2F85C B=EDAB51464D2705D2 Cin=0  |  S=340AE5E94DC9FE2E Cout=1 Ovfl=0  status=PASS
# 41 A=8BD5B0A56E264509 B=D6C7E1B973926B6D Cin=0  |  S=629D925EE1B8B076 Cout=1 Ovfl=1  status=PASS
# 42 A=4BDFE2196DCC3ADB B=ECC989B93FDE5C80 Cin=1  |  S=38A96BD2ADAA975C Cout=1 Ovfl=0  status=PASS
# 43 A=81B4B4CA7D0AF678 B=6139E57F3D9FCFDF Cin=0  |  S=E2EE9A49BAAAC657 Cout=0 Ovfl=0  status=PASS
# 44 A=E381E50A6FA53DA1 B=1A3158EC309CDA8D Cin=1  |  S=FDB33DF6A042182F Cout=0 Ovfl=0  status=PASS
# 45 A=A3A5FDABC28D08CC B=D389D44E61BF4C8D Cin=1  |  S=772FD1FA244C555A Cout=1 Ovfl=1  status=PASS
# 46 A=EE93BB3BE3090633 B=0E70C4761088D139 Cin=1  |  S=FD047FB1F391D76D Cout=0 Ovfl=0  status=PASS
# 47 A=1017517D19481FB5 B=93489F8E020CFFD4 Cin=0  |  S=A35FF10B1B551F89 Cout=0 Ovfl=0  status=PASS
# 48 A=9A64152FE8BA962D B=32917A4638213589 Cin=1  |  S=CCF58F7620DBCBB7 Cout=0 Ovfl=0  status=PASS
# 49 A=F7ED4F0E1EB794F1 B=A366756D90DF49B9 Cin=0  |  S=9B53C47BAF96DEAA Cout=1 Ovfl=0  status=PASS
# 50 A=1F002AF532050688 B=A489E052213F1490 Cin=1  |  S=C38A0B4753441B19 Cout=0 Ovfl=0  status=PASS
# 51 A=F18466A9E4411982 B=B611B2A82BAC6AFA Cin=0  |  S=A79619520FED847C Cout=1 Ovfl=0  status=PASS
# 52 A=89995FA9DAD0237C B=02BCDFD2621B81EA Cin=1  |  S=8C563F7C3CEBA567 Cout=0 Ovfl=0  status=PASS
# 53 A=3445680F7C39F972 B=35AC56B22D50DA38 Cin=0  |  S=69F1BEC1A98AD3AA Cout=0 Ovfl=0  status=PASS
# 54 A=B30791602B8C2178 B=9A7A755FD2156046 Cin=1  |  S=4D8206BFFDA181BF Cout=1 Ovfl=1  status=PASS
# 55 A=4A2219781BD01929 B=BB77425F25CFEFC2 Cin=1  |  S=05995BD741A008EC Cout=1 Ovfl=0  status=PASS
# 56 A=1B2F10EE71FB4102 B=7E077A955B800378 Cin=0  |  S=99368B83CD7B447A Cout=0 Ovfl=1  status=PASS
# 57 A=5974A93A914730BC B=59EAC9090CB7E28E Cin=0  |  S=B35F72439DFF134A Cout=0 Ovfl=1  status=PASS
# 58 A=D8037E78D6451218 B=7B5A8DE7B2BBBA7A Cin=1  |  S=535E0C608900CC93 Cout=1 Ovfl=0  status=PASS
# 59 A=E6DC8BA600A14865 B=2581D8D50FFB1E95 Cin=0  |  S=0C5E647B109C66FA Cout=1 Ovfl=0  status=PASS
# 60 A=309A8DCB3F965764 B=25D3A97D0A635613 Cin=1  |  S=566E374849F9AD78 Cout=0 Ovfl=0  status=PASS
# 61 A=B1A4076D939391AE B=3571C2014358F4C2 Cin=0  |  S=E715C96ED6EC8670 Cout=0 Ovfl=0  status=PASS
# 62 A=F308E394F944310B B=01D0BA4E743F6582 Cin=1  |  S=F4D99DE36D83968E Cout=0 Ovfl=0  status=PASS
# 63 A=8941325501D5B968 B=56E177CBD3F8915C Cin=0  |  S=E022AA20D5CE4AC4 Cout=0 Ovfl=0  status=PASS
# 64 A=87F84B0C825D9658 B=AC7B22FCE394F7B9 Cin=1  |  S=34736E0965F28E12 Cout=1 Ovfl=1  status=PASS
# 65 A=34F293FA89C92B61 B=050E6ED23526E5CD Cin=1  |  S=3A0102CCBEF0112F Cout=0 Ovfl=0  status=PASS
# 66 A=96C1C5F5272B41BF B=11561FB486AB3299 Cin=0  |  S=A817E5A9ADD67458 Cout=0 Ovfl=0  status=PASS
# 67 A=2424CD7C7E333FC3 B=5C1497BFCA9407C3 Cin=1  |  S=8039653C48C74787 Cout=0 Ovfl=1  status=PASS
# 68 A=68A122682E5A6588 B=BA8D3785D626DE3E Cin=0  |  S=232E59EE048143C6 Cout=1 Ovfl=0  status=PASS
# 69 A=E6E80BDF458FF803 B=46B0579F10D59869 Cin=1  |  S=2D98637E5665906D Cout=1 Ovfl=0  status=PASS
# 70 A=915F421217C3D85B B=84776146EBDA926C Cin=1  |  S=15D6A359039E6AC8 Cout=1 Ovfl=1  status=PASS
# 71 A=500D87E92ACC1A6C B=D3318617E9486646 Cin=1  |  S=233F0E01141480B3 Cout=1 Ovfl=0  status=PASS
# 72 A=6C147C4A1DCD49E6 B=D82821131AFB838C Cin=0  |  S=443C9D5D38C8CD72 Cout=1 Ovfl=0  status=PASS
# 73 A=A03F85410C4D6104 B=193C471F63C49808 Cin=0  |  S=B97BCC607011F90C Cout=0 Ovfl=0  status=PASS
# 74 A=1355FE641C85A66D B=F735749D0FFD40C5 Cin=0  |  S=0A8B73012C82E732 Cout=1 Ovfl=0  status=PASS
# 75 A=388D367D7EF24B99 B=A937911C2BFE7FAB Cin=1  |  S=E1C4C799AAF0CB45 Cout=0 Ovfl=0  status=PASS
# 76 A=E516BFCB3E706762 B=3C6740F950609482 Cin=1  |  S=217E00C48ED0FBE5 Cout=1 Ovfl=0  status=PASS
# 77 A=4B80B004631ABDB6 B=543E4ADB01C21658 Cin=1  |  S=9FBEFADF64DCD40F Cout=0 Ovfl=1  status=PASS
# 78 A=2D693E37209EB77B B=D674D71CCA617F08 Cin=0  |  S=03DE1553EB003683 Cout=1 Ovfl=0  status=PASS
# 79 A=CD12B5A569108A6F B=87921717B04FD652 Cin=0  |  S=54A4CCBD196060C1 Cout=1 Ovfl=1  status=PASS
# 80 A=CECD6A9A836893C7 B=E76955FB16D18541 Cin=1  |  S=B636C0959A3A1909 Cout=1 Ovfl=0  status=PASS
# 81 A=493FC3C642650E8C B=D265F8EDAB368EE6 Cin=1  |  S=1BA5BCB3ED9B9D73 Cout=1 Ovfl=0  status=PASS
# 82 A=2E308ED76E56DB0B B=2195D5931022E01D Cin=0  |  S=4FC6646A7E79BB28 Cout=0 Ovfl=0  status=PASS
# 83 A=040633557114092D B=AD9BB467D8BDAC30 Cin=1  |  S=B1A1E7BD49D1B55E Cout=0 Ovfl=0  status=PASS
# 84 A=49332BA93AA3C710 B=C732D10B9CA2A5C3 Cin=1  |  S=1065FCB4D7466CD4 Cout=1 Ovfl=0  status=PASS
# 85 A=E1FE22FE07C554CB B=84A54AD3C799CF3B Cin=0  |  S=66A36DD1CF5F2406 Cout=1 Ovfl=1  status=PASS
# 86 A=2832B0C52A1B9B25 B=3C6DA25EDFEA9776 Cin=1  |  S=64A053240A06329C Cout=0 Ovfl=0  status=PASS
# 87 A=3E5C09B5FFF9F1E7 B=8CB1ED850381A9DB Cin=1  |  S=CB0DF73B037B9BC3 Cout=0 Ovfl=0  status=PASS
# 88 A=304740395CA96A38 B=DAB61C514F2FFCD5 Cin=1  |  S=0AFD5C8AABD9670E Cout=1 Ovfl=0  status=PASS
# 89 A=5778FD32B7D32485 B=BEE4CB6EB15C89EC Cin=0  |  S=165DC8A1692FAE71 Cout=1 Ovfl=0  status=PASS
# 90 A=7838E0EC85EB9761 B=59849C40E5B7C255 Cin=1  |  S=D1BD7D2D6BA359B7 Cout=0 Ovfl=1  status=PASS
# 91 A=9A14E6F4050998A8 B=BF8D2F4BE6585E9C Cin=1  |  S=59A2163FEB61F745 Cout=1 Ovfl=1  status=PASS
# 92 A=2D97DC2BCF14659B B=43187E37C5ED8B5A Cin=0  |  S=70B05A639501F0F5 Cout=0 Ovfl=0  status=PASS
# 93 A=053A368DB0D44812 B=D8B51B97A91A242E Cin=1  |  S=DDEF522559EE6C41 Cout=0 Ovfl=0  status=PASS
# 94 A=646C431946996645 B=2A38A5E0725B1CCB Cin=1  |  S=8EA4E8F9B8F48311 Cout=0 Ovfl=1  status=PASS
# 95 A=791DADD09AC3FF3C B=699324194DE2E74A Cin=0  |  S=E2B0D1E9E8A6E686 Cout=0 Ovfl=1  status=PASS
# 96 A=ABF6C0B49C4E2458 B=AE4518896D0214C2 Cin=1  |  S=5A3BD93E0950391B Cout=1 Ovfl=1  status=PASS
# 97 A=052E4DA50D28FD49 B=E7850D7C987C26F5 Cin=0  |  S=ECB35B21A5A5243E Cout=0 Ovfl=0  status=PASS
# 98 A=25629F0B0A6D0632 B=FB67E788932F01FE Cin=0  |  S=20CA86939D9C0830 Cout=1 Ovfl=0  status=PASS
# 99 A=136744F3D97063C3 B=04CF342B3DBF5794 Cin=0  |  S=1836791F172FBB57 Cout=0 Ovfl=0  status=PASS
# 100 A=EEC8984045978B96 B=61A56C0FDAEFD851 Cin=1  |  S=506E0450208763E8 Cout=1 Ovfl=0  status=PASS
# 101 A=F41B3FBE76C06C4B B=C87341FAD96C7B7F Cin=1  |  S=BC8E81B9502CE7CB Cout=1 Ovfl=0  status=PASS
# 102 A=785E379724296523 B=D224937A258C9A48 Cin=1  |  S=4A82CB1149B5FF6C Cout=1 Ovfl=0  status=PASS
# 103 A=EDF7E99D706C8885 B=494A366D0AD19F78 Cin=1  |  S=3742200A7B3E27FE Cout=1 Ovfl=0  status=PASS
# 104 A=2ADB636AF9059824 B=3B635CDAEF3979E8 Cin=0  |  S=663EC045E83F120C Cout=0 Ovfl=0  status=PASS
# 105 A=C4030E942B149A4E B=53C01A6B8454E48B Cin=1  |  S=17C328FFAF697EDA Cout=1 Ovfl=0  status=PASS
# 106 A=6E28857F4C04283D B=DAC5C1DC53487B3F Cin=1  |  S=48EE475B9F4CA37D Cout=1 Ovfl=0  status=PASS
# 107 A=8EB47B4A0B9E336E B=C19FD5CBB80E0146 Cin=1  |  S=50545115C3AC34B5 Cout=1 Ovfl=1  status=PASS
# 108 A=D7E9A54A7CAADE77 B=B699A23CB6783B82 Cin=1  |  S=8E834787332319FA Cout=1 Ovfl=0  status=PASS
# 109 A=FE8C88F949880C97 B=87DF26550EFC3E62 Cin=1  |  S=866BAF4E58844AFA Cout=1 Ovfl=0  status=PASS
# 110 A=697F3A75CE61E28B B=37F03A6B8DA0E9E3 Cin=1  |  S=A16F74E15C02CC6F Cout=0 Ovfl=1  status=PASS
# 111 A=BD45E9C1440ED451 B=DDE0CA82943E75AE Cin=0  |  S=9B26B443D84D49FF Cout=1 Ovfl=0  status=PASS
# 112 A=B4073E6C818B4F0A B=8D5E45764F941111 Cin=0  |  S=416583E2D11F601B Cout=1 Ovfl=1  status=PASS
# 113 A=DA3FEEE7E1BD364A B=8DF5611377BE2B56 Cin=1  |  S=68354FFB597B61A1 Cout=1 Ovfl=1  status=PASS
# 114 A=248EE5D0B473D139 B=A7118855D7321CB0 Cin=1  |  S=CBA06E268BA5EDEA Cout=0 Ovfl=0  status=PASS
# 115 A=3F9671F4B4343A28 B=AE5CDAC9BDA89A94 Cin=0  |  S=EDF34CBE71DCD4BC Cout=0 Ovfl=0  status=PASS
# 116 A=ECB6F95F04853234 B=491A5034DDFAFFC6 Cin=1  |  S=35D14993E28031FB Cout=1 Ovfl=0  status=PASS
# 117 A=EDE3BAB7CA47E62D B=F86AA1432E97F8E2 Cin=1  |  S=E64E5BFAF8DFDF10 Cout=1 Ovfl=0  status=PASS
# 118 A=2F3D87DEC0AAC482 B=7A8BADB5CC59D2AD Cin=0  |  S=A9C935948D04972F Cout=0 Ovfl=1  status=PASS
# 119 A=A340AD48F32B659D B=A8EC7EEB4B170E2A Cin=0  |  S=4C2D2C343E4273C7 Cout=1 Ovfl=1  status=PASS
# ** Note: Simulation completed: reached end of TestVectors/Adder00.tvs
#    Time: 12120 ns  Iteration: 0  Instance: /tb_adder
# 
# transcript off
# === Functional Simulation Complete ===
do TS_ARRIA_CSA.do
