DP2/Documentation/OutputFiles/TS-ARRIA-BKA-Transcript.txt
# Model Technology ModelSim - Intel FPGA Edition vcom 2020.1 Compiler 2020.02 Feb 28 2020
# -- Loading package STANDARD
# -- Loading package TEXTIO
# -- Loading package std_logic_1164
# -- Loading package VITAL_Timing
# -- Loading package VITAL_Primitives
# -- Loading package arriaii_atom_pack
# -- Loading package arriaii_components
# -- Compiling entity EN_Adder
# -- Compiling architecture structure of EN_Adder
# Model Technology ModelSim - Intel FPGA Edition vcom 2020.1 Compiler 2020.02 Feb 28 2020
# -- Loading package STANDARD
# -- Loading package TEXTIO
# -- Loading package std_logic_1164
# -- Loading package NUMERIC_STD
# -- Compiling entity TB_Adder
# -- Compiling architecture behavior of TB_Adder
# Model Technology ModelSim - Intel FPGA Edition vcom 2020.1 Compiler 2020.02 Feb 28 2020
# -- Loading package STANDARD
# -- Loading package TEXTIO
# -- Loading package std_logic_1164
# -- Compiling configuration CFG_FUNC_RCA
# -- Loading package NUMERIC_STD
# -- Loading entity TB_Adder
# -- Loading architecture behavior of TB_Adder
# -- Loading package VITAL_Timing
# -- Loading package VITAL_Primitives
# -- Loading package arriaii_atom_pack
# -- Loading package arriaii_components
# -- Loading entity EN_Adder
# -- Compiling configuration CFG_FUNC_CSA
# -- Loading entity TB_Adder
# -- Loading architecture behavior of TB_Adder
# -- Loading entity EN_Adder
# -- Compiling configuration CFG_FUNC_LACTA
# -- Loading entity TB_Adder
# -- Loading architecture behavior of TB_Adder
# -- Loading entity EN_Adder
# -- Compiling configuration CFG_FUNC_BKA
# -- Loading entity TB_Adder
# -- Loading architecture behavior of TB_Adder
# -- Loading entity EN_Adder
# -- Compiling configuration CFG_FUNC_CBA
# -- Loading entity TB_Adder
# -- Loading architecture behavior of TB_Adder
# -- Loading entity EN_Adder
# -- Compiling configuration CFG_TIMING
# -- Loading entity TB_Adder
# -- Loading architecture behavior of TB_Adder
# -- Loading entity EN_Adder
# echo "Starting timing simulation for Brent-Kung Adder on ARRIA II..."
# Starting timing simulation for Brent-Kung Adder on ARRIA II...
# transcript off
# End time: 17:21:33 on Nov 13,2025, Elapsed time: 0:00:11
# Errors: 1, Warnings: 2
# vsim -t 100ps -gui -sdftyp "/TB_ADDER/DUT=ModelSim/Questa/ARRIA_BKA.sdo" work.CFG_TIMING 
# Start time: 17:21:33 on Nov 13,2025
# Loading std.standard
# Loading std.textio(body)
# Loading ieee.std_logic_1164(body)
# Loading ieee.numeric_std(body)
# Loading ieee.vital_timing(body)
# Loading ieee.vital_primitives(body)
# Loading arriaii.arriaii_atom_pack(body)
# Loading arriaii.arriaii_components
# Loading work.cfg_timing
# Loading work.tb_adder(behavior)
# Loading work.en_adder(structure)
# Loading ieee.std_logic_arith(body)
# Loading arriaii.arriaii_io_obuf(arch)
# Loading arriaii.arriaii_io_ibuf(arch)
# Loading arriaii.arriaii_lcell_comb(vital_lcell_comb)
# Loading instances from ModelSim/Questa/ARRIA_BKA.sdo
# Loading timing data from ModelSim/Questa/ARRIA_BKA.sdo
# GetModuleFileName: The specified module could not be found.
# 
# 
# ** Warning: Design size of 125976 statements exceeds ModelSim-Intel FPGA Starter Edition recommended capacity.
# Expect performance to be adversely affected.
# ** Note: (vsim-3587) SDF Backannotation Successfully Completed.
#    Time: 0 ps  Iteration: 0  Instance: /tb_adder File: TB_Adder.vhd
# 
# echo "Running timing simulation for Brent-Kung Adder on ARRIA II..."
# Running timing simulation for Brent-Kung Adder on ARRIA II...
# transcript off
# ** Note: Using test vectors from file: TestVectors/Adder00.tvs
#    Time: 0 ps  Iteration: 0  Instance: /tb_adder
# 0 A=0000000000000000 B=0000000000000000 Cin=0  |  S=0000000000000000 Cout=0 Ovfl=0  Delays(S/Cout/Ovfl)=2 ns/2 ns/2 ns  status=PASS
# ** Error: Mismatch: i=1 A=0000000000000001 B=0000000000000000 Cin='0'  got S=XXXXXXXXXXXXXXXX Cout='X' Ovfl='X'  exp S=0000000000000001 Cout='0' Ovfl='0'
#    Time: 9300 ps  Iteration: 0  Instance: /tb_adder
# 1 A=0000000000000001 B=0000000000000000 Cin=0  |  S=XXXXXXXXXXXXXXXX Cout=X Ovfl=X  Delays(S/Cout/Ovfl)=2 ns/6.1 ns/5.8 ns  status=FAIL
# 2 A=0000000000000001 B=0000000000000001 Cin=0  |  S=0000000000000002 Cout=0 Ovfl=0  Delays(S/Cout/Ovfl)=2 ns/7.3 ns/7 ns  status=PASS
# 3 A=0000000000000001 B=0000000000000001 Cin=1  |  S=0000000000000003 Cout=0 Ovfl=0  Delays(S/Cout/Ovfl)=2 ns/7.3 ns/7 ns  status=PASS
# 4 A=FFFFFFFFFFFFFFFF B=0000000000000000 Cin=0  |  S=FFFFFFFFFFFFFFFF Cout=0 Ovfl=0  Delays(S/Cout/Ovfl)=2 ns/6.4 ns/5.9 ns  status=PASS
# 5 A=FFFFFFFFFFFFFFFF B=0000000000000001 Cin=0  |  S=0000000000000000 Cout=1 Ovfl=0  Delays(S/Cout/Ovfl)=2 ns/6.4 ns/5.9 ns  status=PASS
# 6 A=FFFFFFFFFFFFFFFF B=FFFFFFFFFFFFFFFF Cin=0  |  S=FFFFFFFFFFFFFFFE Cout=1 Ovfl=0  Delays(S/Cout/Ovfl)=2 ns/7.5 ns/7.2 ns  status=PASS
# 7 A=FFFFFFFFFFFFFFFF B=FFFFFFFFFFFFFFFF Cin=1  |  S=FFFFFFFFFFFFFFFF Cout=1 Ovfl=0  Delays(S/Cout/Ovfl)=2 ns/7.4 ns/7.1 ns  status=PASS
# 8 A=7FFFFFFFFFFFFFFF B=0000000000000001 Cin=0  |  S=8000000000000000 Cout=0 Ovfl=1  Delays(S/Cout/Ovfl)=2 ns/8.9 ns/6.1 ns  status=PASS
# 9 A=8000000000000000 B=FFFFFFFFFFFFFFFF Cin=0  |  S=7FFFFFFFFFFFFFFF Cout=1 Ovfl=1  Delays(S/Cout/Ovfl)=2 ns/9 ns/6.5 ns  status=PASS
# 10 A=7FFFFFFFFFFFFFFF B=7FFFFFFFFFFFFFFF Cin=0  |  S=FFFFFFFFFFFFFFFE Cout=0 Ovfl=1  Delays(S/Cout/Ovfl)=2 ns/6.4 ns/6.1 ns  status=PASS
# 11 A=8000000000000000 B=8000000000000000 Cin=0  |  S=0000000000000000 Cout=1 Ovfl=1  Delays(S/Cout/Ovfl)=2 ns/7.1 ns/6.8 ns  status=PASS
# 12 A=FFFFFFFFFFFFFFFE B=0000000000000001 Cin=1  |  S=0000000000000000 Cout=1 Ovfl=0  Delays(S/Cout/Ovfl)=2 ns/6.6 ns/5.9 ns  status=PASS
# 13 A=0000000000000000 B=FFFFFFFFFFFFFFFF Cin=1  |  S=0000000000000000 Cout=1 Ovfl=0  Delays(S/Cout/Ovfl)=2 ns/6.6 ns/6.3 ns  status=PASS
# 14 A=0000000000000002 B=FFFFFFFFFFFFFFFF Cin=0  |  S=0000000000000001 Cout=1 Ovfl=0  Delays(S/Cout/Ovfl)=2 ns/6.4 ns/5.9 ns  status=PASS
# 15 A=FFFFFFFFFFFFFFFF B=0000000000000001 Cin=0  |  S=0000000000000000 Cout=1 Ovfl=0  Delays(S/Cout/Ovfl)=2 ns/6.4 ns/5.9 ns  status=PASS
# 16 A=FFFFFFFFFFFFFFFF B=0000000000000000 Cin=1  |  S=0000000000000000 Cout=1 Ovfl=0  Delays(S/Cout/Ovfl)=2 ns/6.6 ns/5.9 ns  status=PASS
# 17 A=00000000FFFFFFFF B=0000000000000001 Cin=0  |  S=0000000100000000 Cout=0 Ovfl=0  Delays(S/Cout/Ovfl)=2 ns/9.1 ns/8.8 ns  status=PASS
# 18 A=FFFFFFFF00000000 B=0000000100000000 Cin=0  |  S=0000000000000000 Cout=1 Ovfl=0  Delays(S/Cout/Ovfl)=2 ns/6.3 ns/5.8 ns  status=PASS
# 19 A=5555555555555555 B=AAAAAAAAAAAAAAAA Cin=1  |  S=0000000000000000 Cout=1 Ovfl=0  Delays(S/Cout/Ovfl)=2 ns/6.6 ns/6.3 ns  status=PASS
# 20 A=7FFFFFFFFFFFFFFF B=0000000000000001 Cin=0  |  S=8000000000000000 Cout=0 Ovfl=1  Delays(S/Cout/Ovfl)=2 ns/9.5 ns/6.1 ns  status=PASS
# 21 A=8000000000000000 B=8000000000000000 Cin=0  |  S=0000000000000000 Cout=1 Ovfl=1  Delays(S/Cout/Ovfl)=2 ns/7.1 ns/6.3 ns  status=PASS
# 22 A=5555555555555555 B=AAAAAAAAAAAAAAAA Cin=0  |  S=FFFFFFFFFFFFFFFF Cout=0 Ovfl=0  Delays(S/Cout/Ovfl)=2 ns/6.5 ns/6.2 ns  status=PASS
# 23 A=0000FFFF0000FFFF B=0000000100000001 Cin=0  |  S=0001000000010000 Cout=0 Ovfl=0  Delays(S/Cout/Ovfl)=2 ns/8 ns/7.5 ns  status=PASS
# 24 A=BC98488587EC7091 B=212CF05B270596D4 Cin=1  |  S=DDC538E0AEF20766 Cout=0 Ovfl=0  Delays(S/Cout/Ovfl)=2 ns/7.2 ns/6.7 ns  status=PASS
# 25 A=782A5BA1E64948CF B=8C97A2DFACE2A5FF Cin=1  |  S=04C1FE81932BEECF Cout=1 Ovfl=0  Delays(S/Cout/Ovfl)=2 ns/5.3 ns/5 ns  status=PASS
# 26 A=8DC32257AAC46DE8 B=5E617CB75F6C8F72 Cin=1  |  S=EC249F0F0A30FD5B Cout=0 Ovfl=0  Delays(S/Cout/Ovfl)=2 ns/4.6 ns/4.3 ns  status=PASS
# 27 A=417253841D70525F B=11443C29D726DA04 Cin=0  |  S=52B68FADF4972C63 Cout=0 Ovfl=0  Delays(S/Cout/Ovfl)=2 ns/6.5 ns/6.2 ns  status=PASS
# 28 A=FEFD8AFCB1C862A6 B=31EC0908D3D5B335 Cin=0  |  S=30E99405859E15DB Cout=1 Ovfl=0  Delays(S/Cout/Ovfl)=2 ns/7.2 ns/6.9 ns  status=PASS
# 29 A=B9F7355672218643 B=F07F0672F91CC3A7 Cin=1  |  S=AA763BC96B3E49EB Cout=1 Ovfl=0  Delays(S/Cout/Ovfl)=2 ns/7.3 ns/7 ns  status=PASS
# 30 A=7A49863188D047D0 B=E3689705BD269C0C Cin=0  |  S=5DB21D3745F6E3DC Cout=1 Ovfl=0  Delays(S/Cout/Ovfl)=2 ns/7.5 ns/7.2 ns  status=PASS
# 31 A=3369E2C6446B41EB B=1B81E7A0A70B087D Cin=0  |  S=4EEBCA66EB764A68 Cout=0 Ovfl=0  Delays(S/Cout/Ovfl)=2 ns/6.7 ns/6 ns  status=PASS
# 32 A=C91A99C7BF149E4D B=D79FA87B637A3EAC Cin=1  |  S=A0BA4243228EDCFA Cout=1 Ovfl=0  Delays(S/Cout/Ovfl)=2 ns/8.6 ns/8.3 ns  status=PASS
# 33 A=341C85E04C7EC716 B=C3C4F66E9155394C Cin=0  |  S=F7E17C4EDDD40062 Cout=0 Ovfl=0  Delays(S/Cout/Ovfl)=2 ns/7.4 ns/5.6 ns  status=PASS
# 34 A=A116F70C8057BDF3 B=7C57130C53D383EE Cin=0  |  S=1D6E0A18D42B41E1 Cout=1 Ovfl=0  Delays(S/Cout/Ovfl)=2 ns/6.6 ns/6.3 ns  status=PASS
# 35 A=473058B84FC3BFC0 B=409A1FB762FE235D Cin=0  |  S=87CA786FB2C1E31D Cout=0 Ovfl=1  Delays(S/Cout/Ovfl)=2 ns/7.2 ns/6.9 ns  status=PASS
# 36 A=F0AA7B7F5BED3814 B=F5479555FD7D1EBA Cin=0  |  S=E5F210D5596A56CE Cout=1 Ovfl=0  Delays(S/Cout/Ovfl)=2 ns/9 ns/8.7 ns  status=PASS
# 37 A=EB05E3AFE853280F B=DB152A0146077E2B Cin=1  |  S=C61B0DB12E5AA63B Cout=1 Ovfl=0  Delays(S/Cout/Ovfl)=2 ns/8.8 ns/8.5 ns  status=PASS
# 38 A=8EE8A34C13AC38AA B=956E385E3B2E4F18 Cin=1  |  S=2456DBAA4EDA87C3 Cout=1 Ovfl=1  Delays(S/Cout/Ovfl)=2 ns/7.2 ns/5.7 ns  status=PASS
# 39 A=1B1487C6C8319F8F B=3221668251DCE265 Cin=1  |  S=4D35EE491A0E81F5 Cout=0 Ovfl=0  Delays(S/Cout/Ovfl)=2 ns/6.5 ns/5.8 ns  status=PASS
# 40 A=18D17B1EF34D899A B=B571A38F52F5C1C0 Cin=0  |  S=CE431EAE46434B5A Cout=0 Ovfl=0  Delays(S/Cout/Ovfl)=2 ns/6.1 ns/5.6 ns  status=PASS
# 41 A=8C309C2EC44C329C B=019A2CBA3604D3F0 Cin=1  |  S=8DCAC8E8FA51068D Cout=0 Ovfl=0  Delays(S/Cout/Ovfl)=2 ns/6.8 ns/6.5 ns  status=PASS
# 42 A=4B8A7160A82C94E5 B=6FC343BE5D597E23 Cin=0  |  S=BB4DB51F05861308 Cout=0 Ovfl=1  Delays(S/Cout/Ovfl)=2 ns/7 ns/6.7 ns  status=PASS
# 43 A=925AE434A7B75892 B=6584D197FA8C8EFE Cin=0  |  S=F7DFB5CCA243E790 Cout=0 Ovfl=0  Delays(S/Cout/Ovfl)=2 ns/6.1 ns/5.4 ns  status=PASS
# 44 A=D1C5CD93C4A73557 B=FCF15A707D8BED74 Cin=1  |  S=CEB72804423322CC Cout=1 Ovfl=0  Delays(S/Cout/Ovfl)=2 ns/9.1 ns/8.8 ns  status=PASS
# 45 A=CEF58B96A866BBCA B=099848D5E384A19E Cin=1  |  S=D88DD46C8BEB5D69 Cout=0 Ovfl=0  Delays(S/Cout/Ovfl)=2 ns/5.6 ns/5.3 ns  status=PASS
# 46 A=4EA2D086B9FF2917 B=4748701D06717932 Cin=0  |  S=95EB40A3C070A249 Cout=0 Ovfl=1  Delays(S/Cout/Ovfl)=2 ns/8.8 ns/8.5 ns  status=PASS
# 47 A=2CDB913AF56BA1F2 B=5A7B8757CCF17535 Cin=0  |  S=87571892C25D1727 Cout=0 Ovfl=1  Delays(S/Cout/Ovfl)=2 ns/9 ns/6.6 ns  status=PASS
# 48 A=2424D3DDBEB42843 B=4D3C99537B0D76A5 Cin=1  |  S=71616D3139C19EE9 Cout=0 Ovfl=0  Delays(S/Cout/Ovfl)=2 ns/7.6 ns/6.3 ns  status=PASS
# 49 A=A4FCA64B7E2D482F B=4E64F9E830EEB02D Cin=0  |  S=F361A033AF1BF85C Cout=0 Ovfl=0  Delays(S/Cout/Ovfl)=2 ns/5.9 ns/5.6 ns  status=PASS
# 50 A=365C78D64F2B2404 B=36EB67D147BEF105 Cin=0  |  S=6D47E0A796EA1509 Cout=0 Ovfl=0  Delays(S/Cout/Ovfl)=2 ns/6.3 ns/5.6 ns  status=PASS
# 51 A=DB82FEDAA0A394C8 B=248EE63012968589 Cin=0  |  S=0011E50AB33A1A51 Cout=1 Ovfl=0  Delays(S/Cout/Ovfl)=2 ns/4.5 ns/4.2 ns  status=PASS
# 52 A=23A61222324D76DF B=FE488DDCCEFAEFBB Cin=1  |  S=21EE9FFF0148669B Cout=1 Ovfl=0  Delays(S/Cout/Ovfl)=2 ns/7.2 ns/6.9 ns  status=PASS
# 53 A=EF3F886F7CE35EF0 B=0E5F11BDA4C25995 Cin=0  |  S=FD9E9A2D21A5B885 Cout=0 Ovfl=0  Delays(S/Cout/Ovfl)=2 ns/5.2 ns/4.9 ns  status=PASS
# 54 A=FD5506C126094280 B=300224EC59BF4C6B Cin=0  |  S=2D572BAD7FC88EEB Cout=1 Ovfl=0  Delays(S/Cout/Ovfl)=2 ns/6.5 ns/6.2 ns  status=PASS
# 55 A=5488E50BA0621E7F B=ED8867C0F99D8B12 Cin=1  |  S=42114CCC99FFA992 Cout=1 Ovfl=0  Delays(S/Cout/Ovfl)=2 ns/7.6 ns/7.3 ns  status=PASS
# 56 A=E0C304DCDE0C974F B=38AFF30211FC3C4C Cin=0  |  S=1972F7DEF008D39B Cout=1 Ovfl=0  Delays(S/Cout/Ovfl)=2 ns/6.6 ns/6.3 ns  status=PASS
# 57 A=B268200939EBB2C1 B=4AEF344170544371 Cin=1  |  S=FD57544AAA3FF633 Cout=0 Ovfl=0  Delays(S/Cout/Ovfl)=2 ns/5.6 ns/5.3 ns  status=PASS
# 58 A=2353861189154531 B=5153240244F2A95E Cin=1  |  S=74A6AA13CE07EE90 Cout=0 Ovfl=0  Delays(S/Cout/Ovfl)=2 ns/6.9 ns/6.3 ns  status=PASS
# 59 A=C358422740EB6A18 B=C767A50438EE0296 Cin=0  |  S=8ABFE72B79D96CAE Cout=1 Ovfl=0  Delays(S/Cout/Ovfl)=2 ns/8.1 ns/7.8 ns  status=PASS
# 60 A=B6A50931E56D0445 B=F9B2626BDDCFAFB6 Cin=0  |  S=B0576B9DC33CB3FB Cout=1 Ovfl=0  Delays(S/Cout/Ovfl)=2 ns/8.5 ns/8.2 ns  status=PASS
# 61 A=FAB23F3BA86B516E B=337B2F34DBA80AF4 Cin=0  |  S=2E2D6E7084135C62 Cout=1 Ovfl=0  Delays(S/Cout/Ovfl)=2 ns/6.6 ns/6.3 ns  status=PASS
# 62 A=CD102E6F5C8B6591 B=E541D80F042DD1C7 Cin=0  |  S=B252067E60B93758 Cout=1 Ovfl=0  Delays(S/Cout/Ovfl)=2 ns/26.7 ns/8.9 ns  status=PASS
# 63 A=A0AF64A81856EEE2 B=C3AFE81FF290F267 Cin=0  |  S=645F4CC80AE7E149 Cout=1 Ovfl=1  Delays(S/Cout/Ovfl)=2 ns/6.9 ns/5.4 ns  status=PASS
# 64 A=83E2260F2C60132A B=F60D65FEF39DF5CC Cin=1  |  S=79EF8C0E1FFE08F7 Cout=1 Ovfl=1  Delays(S/Cout/Ovfl)=2 ns/7.2 ns/4.4 ns  status=PASS
# 65 A=E481AEA4E2C39E9F B=1D7C26E548CFC60D Cin=0  |  S=01FDD58A2B9364AC Cout=1 Ovfl=0  Delays(S/Cout/Ovfl)=2 ns/4.8 ns/4.4 ns  status=PASS
# 66 A=A2F355EC031EE5AD B=48B8241CB05AE5BB Cin=0  |  S=EBAB7A08B379CB68 Cout=0 Ovfl=0  Delays(S/Cout/Ovfl)=2 ns/5.8 ns/5.5 ns  status=PASS
# 67 A=01D645F84CD79CB2 B=3809626091A74E0E Cin=1  |  S=39DFA858DE7EEAC1 Cout=0 Ovfl=0  Delays(S/Cout/Ovfl)=2 ns/6.6 ns/6.3 ns  status=PASS
# 68 A=22463D77023A814C B=28E8BABAE269855F Cin=0  |  S=4B2EF831E4A406AB Cout=0 Ovfl=0  Delays(S/Cout/Ovfl)=2 ns/7.7 ns/7.4 ns  status=PASS
# 69 A=6344A473A647E6D8 B=A0325E6E27982ACA Cin=1  |  S=037702E1CDE011A3 Cout=1 Ovfl=0  Delays(S/Cout/Ovfl)=2 ns/6.9 ns/6.6 ns  status=PASS
# 70 A=9873CD4382D06B71 B=F049020611C7628E Cin=1  |  S=88BCCF499497CE00 Cout=1 Ovfl=0  Delays(S/Cout/Ovfl)=2 ns/8.1 ns/6.4 ns  status=PASS
# 71 A=A41F77E2FBD11D33 B=4F1F788BF56D850A Cin=1  |  S=F33EF06EF13EA23E Cout=0 Ovfl=0  Delays(S/Cout/Ovfl)=2 ns/7.3 ns/6.5 ns  status=PASS
# 72 A=EA438CA8735A51E2 B=87A2339B7A00129B Cin=1  |  S=71E5C043ED5A647E Cout=1 Ovfl=1  Delays(S/Cout/Ovfl)=2 ns/7.2 ns/5.1 ns  status=PASS
# 73 A=FC1A51B0D3103238 B=771C0B42ECCB239D Cin=1  |  S=73365CF3BFDB55D6 Cout=1 Ovfl=0  Delays(S/Cout/Ovfl)=2 ns/8.8 ns/8.5 ns  status=PASS
# 74 A=E4F8D11DE9B21243 B=6C2BCF7EA80545E5 Cin=0  |  S=5124A09C91B75828 Cout=1 Ovfl=0  Delays(S/Cout/Ovfl)=2 ns/8 ns/7.7 ns  status=PASS
# 75 A=875321F2A9F97529 B=8C4A7750BEFB8D2F Cin=1  |  S=139D994368F50259 Cout=1 Ovfl=1  Delays(S/Cout/Ovfl)=2 ns/8.4 ns/7.7 ns  status=PASS
# 76 A=33ADF6096A39FEC8 B=3EC36234251D24DD Cin=0  |  S=7271583D8F5723A5 Cout=0 Ovfl=0  Delays(S/Cout/Ovfl)=2 ns/6.9 ns/6.2 ns  status=PASS
# 77 A=739A2C1CF58E01C9 B=E6D1B6AFEAB617AE Cin=0  |  S=5A6BE2CCE0441977 Cout=1 Ovfl=0  Delays(S/Cout/Ovfl)=2 ns/8.6 ns/8.3 ns  status=PASS
# 78 A=F6E55513A76B85A5 B=33ABC460AC73D390 Cin=0  |  S=2A91197453DF5935 Cout=1 Ovfl=0  Delays(S/Cout/Ovfl)=2 ns/6.7 ns/6.4 ns  status=PASS
# 79 A=2983D51CE736AB80 B=C24A0AF3833846B0 Cin=1  |  S=EBCDE0106A6EF231 Cout=0 Ovfl=0  Delays(S/Cout/Ovfl)=2 ns/6.7 ns/6.1 ns  status=PASS
# 80 A=10FE8A59B4794B42 B=01003B41AA539902 Cin=0  |  S=11FEC59B5ECCE444 Cout=0 Ovfl=0  Delays(S/Cout/Ovfl)=2 ns/7.2 ns/6.9 ns  status=PASS
# 81 A=97F102992D0BED15 B=9135F502F5AAAF87 Cin=1  |  S=2926F79C22B69C9D Cout=1 Ovfl=1  Delays(S/Cout/Ovfl)=2 ns/8.2 ns/6.7 ns  status=PASS
# 82 A=D5984A71A9CE6714 B=B840DEA9BB80779F Cin=0  |  S=8DD9291B654EDEB3 Cout=1 Ovfl=0  Delays(S/Cout/Ovfl)=2 ns/8.3 ns/6.4 ns  status=PASS
# 83 A=83351CB2E433E05A B=F6EC84495B5918B1 Cin=1  |  S=7A21A0FC3F8CF90C Cout=1 Ovfl=1  Delays(S/Cout/Ovfl)=2 ns/7.8 ns/5 ns  status=PASS
# 84 A=1770929590DD5807 B=0F8C89D0EE0AF051 Cin=1  |  S=26FD1C667EE84859 Cout=0 Ovfl=0  Delays(S/Cout/Ovfl)=2 ns/7.6 ns/7.3 ns  status=PASS
# 85 A=30E14D538314A7F6 B=08325BB33971D540 Cin=0  |  S=3913A906BC867D36 Cout=0 Ovfl=0  Delays(S/Cout/Ovfl)=2 ns/7.8 ns/7.5 ns  status=PASS
# 86 A=170D2F0331AC728C B=F555104CA0347FAC Cin=1  |  S=0C623F4FD1E0F239 Cout=1 Ovfl=0  Delays(S/Cout/Ovfl)=2 ns/6.4 ns/5.8 ns  status=PASS
# 87 A=51FE914A658DCA11 B=B2C4B3EF868B3B06 Cin=0  |  S=04C34539EC190517 Cout=1 Ovfl=0  Delays(S/Cout/Ovfl)=2 ns/6.7 ns/5.7 ns  status=PASS
# 88 A=80E32740E450A7AE B=86E6A2AEFC14B97F Cin=0  |  S=07C9C9EFE065612D Cout=1 Ovfl=1  Delays(S/Cout/Ovfl)=2 ns/7.8 ns/7.5 ns  status=PASS
# 89 A=E3CA20E9D985F697 B=69643BD4CC9AB979 Cin=0  |  S=4D2E5CBEA620B010 Cout=1 Ovfl=0  Delays(S/Cout/Ovfl)=2 ns/8 ns/7.7 ns  status=PASS
# 90 A=4F623E49C6114570 B=44366120235FC547 Cin=1  |  S=93989F69E9710AB8 Cout=0 Ovfl=1  Delays(S/Cout/Ovfl)=2 ns/6.7 ns/6.4 ns  status=PASS
# 91 A=DD3F52BE06C4BDEA B=EE4E1D289ABA8B4D Cin=1  |  S=CB8D6FE6A17F4938 Cout=1 Ovfl=0  Delays(S/Cout/Ovfl)=2 ns/7.8 ns/7.5 ns  status=PASS
# 92 A=67B4D37845096591 B=C7D425AB462636ED Cin=1  |  S=2F88F9238B2F9C7F Cout=1 Ovfl=0  Delays(S/Cout/Ovfl)=2 ns/7.4 ns/7.1 ns  status=PASS
# 93 A=D5FEFA309BF9B0AE B=0D55DA4A711D3244 Cin=1  |  S=E354D47B0D16E2F3 Cout=0 Ovfl=0  Delays(S/Cout/Ovfl)=2 ns/5.6 ns/5.3 ns  status=PASS
# 94 A=EDC2623EEF0AB9AA B=E06555B24F4F726D Cin=1  |  S=CE27B7F13E5A2C18 Cout=1 Ovfl=0  Delays(S/Cout/Ovfl)=2 ns/8.9 ns/8.6 ns  status=PASS
# 95 A=A57F6C3E67243A09 B=DACD2B4B569856F2 Cin=0  |  S=804C9789BDBC90FB Cout=1 Ovfl=0  Delays(S/Cout/Ovfl)=2 ns/7 ns/3.4 ns  status=PASS
# 96 A=49A19C456683025A B=DCE5EAE3B4E0C7F9 Cin=1  |  S=268787291B63CA54 Cout=1 Ovfl=0  Delays(S/Cout/Ovfl)=2 ns/7.4 ns/7.1 ns  status=PASS
# 97 A=A73CCF15F0A83A26 B=16AAE3A013AF69C3 Cin=0  |  S=BDE7B2B60457A3E9 Cout=0 Ovfl=0  Delays(S/Cout/Ovfl)=2 ns/7.2 ns/6.7 ns  status=PASS
# 98 A=8A0F79386704A134 B=4CF4EE77CC7A6C0A Cin=0  |  S=D70467B0337F0D3E Cout=0 Ovfl=0  Delays(S/Cout/Ovfl)=2 ns/5.7 ns/5.4 ns  status=PASS
# 99 A=F5441D676BD43244 B=F6275997E3A03CE0 Cin=1  |  S=EB6B76FF4F746F25 Cout=1 Ovfl=0  Delays(S/Cout/Ovfl)=2 ns/8.1 ns/7.8 ns  status=PASS
# 100 A=52BA0A5628D85686 B=396E653DA5172B16 Cin=1  |  S=8C286F93CDEF819D Cout=0 Ovfl=1  Delays(S/Cout/Ovfl)=2 ns/6.7 ns/5.5 ns  status=PASS
# ** Note: Simulation completed: reached end of TestVectors/Adder00.tvs
#    Time: 2069700 ps  Iteration: 0  Instance: /tb_adder
# ** Note: Worst-case propagation delays - S: 2000 ps, Cout: 6700 ps, Ovfl: 5500 ps
#    Time: 2069700 ps  Iteration: 0  Instance: /tb_adder
# 
# echo "=== timing Simulation for Brent-Kung Adder on ARRIA II Complete ==="
# === timing Simulation for Brent-Kung Adder on ARRIA II Complete ===
# transcript off
# Project file C:/Users/asa414/ENSC-350/DP2/Simulation/DP2.mpf is write protected, data cannot be saved.
# Unable to save project.
# End time: 17:35:07 on Nov 13,2025, Elapsed time: 0:13:34
# Errors: 1, Warnings: 1
